sar_code_logic_custom/dump.vcd
$date
	Thu Jul 31 16:18:47 2025
$end
$version
	Icarus Verilog
$end
$timescale
	1us
$end
$scope module adc_core_digital_tb $end
$var reg 1 ! rst_n $end
$upscope $end
$scope module adc_core_digital_tb $end
$var reg 16 " config_1_in [15:0] $end
$upscope $end
$scope module adc_core_digital_tb $end
$var reg 16 # config_2_in [15:0] $end
$upscope $end
$scope module adc_core_digital_tb $end
$var wire 10 $ result_out [9:0] $end
$upscope $end
$scope module adc_core_digital_tb $end
$var wire 1 % conv_finished_out $end
$upscope $end
$scope module adc_core_digital_tb $end
$var wire 1 & conv_finished_osr_out $end
$upscope $end
$scope module adc_core_digital_tb $end
$var reg 1 ' comparator_in $end
$upscope $end
$scope module adc_core_digital_tb $end
$var reg 1 ( clk_dig_in $end
$upscope $end
$scope module adc_core_digital_tb $end
$var wire 1 ) enable_loop_out $end
$upscope $end
$scope module adc_core_digital_tb $end
$var wire 1 * sample_matrix_out $end
$upscope $end
$scope module adc_core_digital_tb $end
$var wire 1 + sample_matrix_out_n $end
$upscope $end
$scope module adc_core_digital_tb $end
$var wire 1 , sample_switch_out $end
$upscope $end
$scope module adc_core_digital_tb $end
$var wire 1 - sample_switch_out_n $end
$upscope $end
$scope module adc_core_digital_tb $end
$var wire 32 . pmatrix_col_out_n [31:0] $end
$upscope $end
$scope module adc_core_digital_tb $end
$var wire 16 / pmatrix_row_out_n [15:0] $end
$upscope $end
$scope module adc_core_digital_tb $end
$var wire 16 0 pmatrix_rowon_out_n [15:0] $end
$upscope $end
$scope module adc_core_digital_tb $end
$var wire 3 1 pmatrix_bincap_out_n [2:0] $end
$upscope $end
$scope module adc_core_digital_tb $end
$var wire 1 2 pmatrix_c0_out_n $end
$upscope $end
$scope module adc_core_digital_tb $end
$var wire 32 3 nmatrix_col_out_n [31:0] $end
$upscope $end
$scope module adc_core_digital_tb $end
$var wire 16 4 nmatrix_row_out_n [15:0] $end
$upscope $end
$scope module adc_core_digital_tb $end
$var wire 16 5 nmatrix_rowon_out_n [15:0] $end
$upscope $end
$scope module adc_core_digital_tb $end
$var wire 3 6 nmatrix_bincap_out_n [2:0] $end
$upscope $end
$scope module adc_core_digital_tb $end
$var wire 1 7 nmatrix_c0_out_n $end
$upscope $end
$scope module adc_core_digital_tb $end
$scope module core_dut $end
$var wire 16 8 _unused_ok_2 [15:0] $end
$var wire 1 9 _unused_ok_pin1 $end
$var wire 1 : _unused_ok_pin2 $end
$var wire 1 ( clk_dig_in $end
$var wire 1 ' comparator_in $end
$var wire 16 ; config_1_in [15:0] $end
$var wire 16 < config_2_in [15:0] $end
$var wire 1 % conv_finished_out $end
$var wire 1 7 nmatrix_c0_out_n $end
$var wire 1 2 pmatrix_c0_out_n $end
$var wire 1 ! rst_n $end
$var wire 1 * sample_matrix_out $end
$var wire 1 + sample_matrix_out_n $end
$var wire 1 , sample_switch_out $end
$var wire 1 - sample_switch_out_n $end
$var wire 1 = sample_cnb_n $end
$var wire 1 > sample_cnb $end
$var wire 1 ? row_mode_w $end
$var wire 16 @ result_out [15:0] $end
$var wire 10 A result_cnb [9:0] $end
$var wire 10 B pswitch_cnb [9:0] $end
$var wire 16 C pmatrix_rowon_out_n [15:0] $end
$var wire 16 D pmatrix_rowoff_out_n [15:0] $end
$var wire 16 E pmatrix_row_out_n [15:0] $end
$var wire 32 F pmatrix_col_out_n [31:0] $end
$var wire 32 G pmatrix_col_out [31:0] $end
$var wire 3 H pmatrix_bincap_out_n [2:0] $end
$var wire 3 I osr_mode_w [2:0] $end
$var wire 10 J nswitch_cnb [9:0] $end
$var wire 16 K nmatrix_rowon_out_n [15:0] $end
$var wire 16 L nmatrix_rowoff_out_n [15:0] $end
$var wire 16 M nmatrix_row_out_n [15:0] $end
$var wire 32 N nmatrix_col_out_n [31:0] $end
$var wire 32 O nmatrix_col_out [31:0] $end
$var wire 3 P nmatrix_bincap_out_n [2:0] $end
$var wire 1 ) enable_loop_out $end
$var wire 1 & conv_finished_osr_out $end
$var wire 1 Q conv_finished_cnb_n $end
$var wire 1 R col_mode_w $end
$var wire 3 S avg_control_w [2:0] $end
$var wire 8 T _unused_ok_1 [7:0] $end
$scope module cnb $end
$var wire 3 U avg_control_in [2:0] $end
$var wire 1 ( clk $end
$var wire 1 ' comparator_in $end
$var wire 1 Q conv_finished_strobe_out $end
$var wire 1 ) enable_loop_out $end
$var wire 1 V is_averaging_w $end
$var wire 1 W lsb_region_w $end
$var wire 10 X nswitch_out [9:0] $end
$var wire 10 Y pswitch_out [9:0] $end
$var wire 1 Z result_ready_w $end
$var wire 1 [ result_strobe_w $end
$var wire 1 ! rst_n $end
$var wire 1 > sample_out $end
$var wire 1 = sample_out_n $end
$var wire 10 \ sar_up [9:0] $end
$var wire 10 ] sar_down [9:0] $end
$var wire 10 ^ nonbinary_value_w [9:0] $end
$var wire 15 _ next_shift_register_w [14:0] $end
$var wire 3 ` next_sampled_avg_control_w [2:0] $end
$var wire 10 a next_result_w [9:0] $end
$var wire 10 b next_data_register_w [9:0] $end
$var wire 5 c next_average_sum_w [4:0] $end
$var wire 5 d next_average_counter_w [4:0] $end
$var wire 1 e is_sampling_w $end
$var wire 1 f is_holding_result_w $end
$var wire 1 g averaged_comparator_in_w $end
$var wire 5 h average_count_limit_w [4:0] $end
$var reg 5 i average_counter_r [4:0] $end
$var reg 5 j average_sum_r [4:0] $end
$var reg 1 Q conv_finished_r $end
$var reg 10 k data_register_r [9:0] $end
$var reg 10 l result_out [9:0] $end
$var reg 3 m sampled_avg_control_r [2:0] $end
$var reg 15 n shift_register_r [14:0] $end
$upscope $end
$scope module ndc $end
$var wire 3 o bincap_out_n [2:0] $end
$var wire 1 7 c0n_out_n $end
$var wire 1 : c0p_out_n $end
$var wire 1 R col_mode $end
$var wire 32 p col_out [31:0] $end
$var wire 10 q data_in [9:0] $end
$var wire 1 r is_first_row $end
$var wire 16 s row_bottotop_n [15:0] $end
$var wire 1 ? row_mode $end
$var wire 16 t rowoff_out_n [15:0] $end
$var wire 1 u zeroes $end
$var wire 16 v rowon_out_n [15:0] $end
$var wire 16 w rowon_midtoside_n [15:0] $end
$var wire 16 x rowon_bottotop_n [15:0] $end
$var wire 16 y row_out_n [15:0] $end
$var wire 16 z row_midtoside_n [15:0] $end
$var wire 3 { row_intermediate_w [2:0] $end
$var wire 1 | row_direction_RL $end
$var wire 32 } col_sidetoside_n [31:0] $end
$var wire 33 ~ col_shift_inv [32:0] $end
$var wire 33 !" col_shift [32:0] $end
$var wire 32 "" col_out_n [31:0] $end
$var wire 32 #" col_odd_n [31:0] $end
$var wire 32 $" col_midtoside_n [31:0] $end
$var wire 4 %" col_intermediate_w [3:0] $end
$var wire 32 &" col_even_n [31:0] $end
$var wire 3 '" bincap_w [2:0] $end
$scope begin genblk1[0] $end
$upscope $end
$scope begin genblk1[1] $end
$upscope $end
$scope begin genblk1[2] $end
$upscope $end
$scope begin genblk1[3] $end
$upscope $end
$scope begin genblk1[4] $end
$upscope $end
$scope begin genblk1[5] $end
$upscope $end
$scope begin genblk1[6] $end
$upscope $end
$scope begin genblk1[7] $end
$upscope $end
$scope begin genblk2[0] $end
$upscope $end
$scope begin genblk2[1] $end
$upscope $end
$scope begin genblk2[2] $end
$upscope $end
$scope begin genblk2[3] $end
$upscope $end
$scope begin genblk2[4] $end
$upscope $end
$scope begin genblk2[5] $end
$upscope $end
$scope begin genblk2[6] $end
$upscope $end
$scope begin genblk2[7] $end
$upscope $end
$scope begin genblk2[8] $end
$upscope $end
$scope begin genblk2[9] $end
$upscope $end
$scope begin genblk2[10] $end
$upscope $end
$scope begin genblk2[11] $end
$upscope $end
$scope begin genblk2[12] $end
$upscope $end
$scope begin genblk2[13] $end
$upscope $end
$scope begin genblk2[14] $end
$upscope $end
$scope begin genblk2[15] $end
$upscope $end
$scope begin genblk2[16] $end
$upscope $end
$scope begin genblk2[17] $end
$upscope $end
$scope begin genblk2[18] $end
$upscope $end
$scope begin genblk2[19] $end
$upscope $end
$scope begin genblk2[20] $end
$upscope $end
$scope begin genblk2[21] $end
$upscope $end
$scope begin genblk2[22] $end
$upscope $end
$scope begin genblk2[23] $end
$upscope $end
$scope begin genblk2[24] $end
$upscope $end
$scope begin genblk2[25] $end
$upscope $end
$scope begin genblk2[26] $end
$upscope $end
$scope begin genblk2[27] $end
$upscope $end
$scope begin genblk2[28] $end
$upscope $end
$scope begin genblk2[29] $end
$upscope $end
$scope begin genblk2[30] $end
$upscope $end
$scope begin genblk2[31] $end
$upscope $end
$scope begin genblk2[32] $end
$upscope $end
$scope begin genblk3[0] $end
$upscope $end
$scope begin genblk3[1] $end
$upscope $end
$scope begin genblk3[2] $end
$upscope $end
$scope begin genblk3[3] $end
$upscope $end
$scope begin genblk3[4] $end
$upscope $end
$scope begin genblk3[5] $end
$upscope $end
$scope begin genblk3[6] $end
$upscope $end
$scope begin genblk3[7] $end
$upscope $end
$scope begin genblk3[8] $end
$upscope $end
$scope begin genblk3[9] $end
$upscope $end
$scope begin genblk3[10] $end
$upscope $end
$scope begin genblk3[11] $end
$upscope $end
$scope begin genblk3[12] $end
$upscope $end
$scope begin genblk3[13] $end
$upscope $end
$scope begin genblk3[14] $end
$upscope $end
$scope begin genblk3[15] $end
$upscope $end
$upscope $end
$scope module osr $end
$var wire 1 (" bypass_oversampling $end
$var wire 1 & conversion_finished_osr_out $end
$var wire 10 )" data_in [9:0] $end
$var wire 16 *" data_out [15:0] $end
$var wire 1 Q data_valid_strobe $end
$var wire 1 +" is_first_sample $end
$var wire 1 ," is_last_sample $end
$var wire 1 -" next_data_valid_w $end
$var wire 3 ." osr_mode_in [2:0] $end
$var wire 1 ! rst_n $end
$var wire 9 /" osr_count_limit_w [8:0] $end
$var wire 9 0" next_sample_count_w [8:0] $end
$var wire 20 1" next_result_w [19:0] $end
$var wire 16 2" next_output_w [15:0] $end
$var wire 3 3" next_osr_mode_w [2:0] $end
$var reg 1 4" data_valid_r $end
$var reg 3 5" osr_mode_r [2:0] $end
$var reg 16 6" output_r [15:0] $end
$var reg 20 7" result_r [19:0] $end
$var reg 9 8" sample_count_r [8:0] $end
$upscope $end
$scope module pdc $end
$var wire 3 9" bincap_out_n [2:0] $end
$var wire 1 9 c0n_out_n $end
$var wire 1 2 c0p_out_n $end
$var wire 1 R col_mode $end
$var wire 32 :" col_out [31:0] $end
$var wire 10 ;" data_in [9:0] $end
$var wire 1 <" is_first_row $end
$var wire 16 =" row_bottotop_n [15:0] $end
$var wire 1 ? row_mode $end
$var wire 16 >" rowoff_out_n [15:0] $end
$var wire 1 ?" zeroes $end
$var wire 16 @" rowon_out_n [15:0] $end
$var wire 16 A" rowon_midtoside_n [15:0] $end
$var wire 16 B" rowon_bottotop_n [15:0] $end
$var wire 16 C" row_out_n [15:0] $end
$var wire 16 D" row_midtoside_n [15:0] $end
$var wire 3 E" row_intermediate_w [2:0] $end
$var wire 1 F" row_direction_RL $end
$var wire 32 G" col_sidetoside_n [31:0] $end
$var wire 33 H" col_shift_inv [32:0] $end
$var wire 33 I" col_shift [32:0] $end
$var wire 32 J" col_out_n [31:0] $end
$var wire 32 K" col_odd_n [31:0] $end
$var wire 32 L" col_midtoside_n [31:0] $end
$var wire 4 M" col_intermediate_w [3:0] $end
$var wire 32 N" col_even_n [31:0] $end
$var wire 3 O" bincap_w [2:0] $end
$scope begin genblk1[0] $end
$upscope $end
$scope begin genblk1[1] $end
$upscope $end
$scope begin genblk1[2] $end
$upscope $end
$scope begin genblk1[3] $end
$upscope $end
$scope begin genblk1[4] $end
$upscope $end
$scope begin genblk1[5] $end
$upscope $end
$scope begin genblk1[6] $end
$upscope $end
$scope begin genblk1[7] $end
$upscope $end
$scope begin genblk2[0] $end
$upscope $end
$scope begin genblk2[1] $end
$upscope $end
$scope begin genblk2[2] $end
$upscope $end
$scope begin genblk2[3] $end
$upscope $end
$scope begin genblk2[4] $end
$upscope $end
$scope begin genblk2[5] $end
$upscope $end
$scope begin genblk2[6] $end
$upscope $end
$scope begin genblk2[7] $end
$upscope $end
$scope begin genblk2[8] $end
$upscope $end
$scope begin genblk2[9] $end
$upscope $end
$scope begin genblk2[10] $end
$upscope $end
$scope begin genblk2[11] $end
$upscope $end
$scope begin genblk2[12] $end
$upscope $end
$scope begin genblk2[13] $end
$upscope $end
$scope begin genblk2[14] $end
$upscope $end
$scope begin genblk2[15] $end
$upscope $end
$scope begin genblk2[16] $end
$upscope $end
$scope begin genblk2[17] $end
$upscope $end
$scope begin genblk2[18] $end
$upscope $end
$scope begin genblk2[19] $end
$upscope $end
$scope begin genblk2[20] $end
$upscope $end
$scope begin genblk2[21] $end
$upscope $end
$scope begin genblk2[22] $end
$upscope $end
$scope begin genblk2[23] $end
$upscope $end
$scope begin genblk2[24] $end
$upscope $end
$scope begin genblk2[25] $end
$upscope $end
$scope begin genblk2[26] $end
$upscope $end
$scope begin genblk2[27] $end
$upscope $end
$scope begin genblk2[28] $end
$upscope $end
$scope begin genblk2[29] $end
$upscope $end
$scope begin genblk2[30] $end
$upscope $end
$scope begin genblk2[31] $end
$upscope $end
$scope begin genblk2[32] $end
$upscope $end
$scope begin genblk3[0] $end
$upscope $end
$scope begin genblk3[1] $end
$upscope $end
$scope begin genblk3[2] $end
$upscope $end
$scope begin genblk3[3] $end
$upscope $end
$scope begin genblk3[4] $end
$upscope $end
$scope begin genblk3[5] $end
$upscope $end
$scope begin genblk3[6] $end
$upscope $end
$scope begin genblk3[7] $end
$upscope $end
$scope begin genblk3[8] $end
$upscope $end
$scope begin genblk3[9] $end
$upscope $end
$scope begin genblk3[10] $end
$upscope $end
$scope begin genblk3[11] $end
$upscope $end
$scope begin genblk3[12] $end
$upscope $end
$scope begin genblk3[13] $end
$upscope $end
$scope begin genblk3[14] $end
$upscope $end
$scope begin genblk3[15] $end
$upscope $end
$upscope $end
$upscope $end
$upscope $end
$scope module adc_core_digital_tb $end
$scope module core_dut $end
$scope module cnb $end
$upscope $end
$scope module ndc $end
$scope begin genblk1[0] $end
$upscope $end
$scope begin genblk1[1] $end
$upscope $end
$scope begin genblk1[2] $end
$upscope $end
$scope begin genblk1[3] $end
$upscope $end
$scope begin genblk1[4] $end
$upscope $end
$scope begin genblk1[5] $end
$upscope $end
$scope begin genblk1[6] $end
$upscope $end
$scope begin genblk1[7] $end
$upscope $end
$scope begin genblk2[0] $end
$upscope $end
$scope begin genblk2[1] $end
$upscope $end
$scope begin genblk2[2] $end
$upscope $end
$scope begin genblk2[3] $end
$upscope $end
$scope begin genblk2[4] $end
$upscope $end
$scope begin genblk2[5] $end
$upscope $end
$scope begin genblk2[6] $end
$upscope $end
$scope begin genblk2[7] $end
$upscope $end
$scope begin genblk2[8] $end
$upscope $end
$scope begin genblk2[9] $end
$upscope $end
$scope begin genblk2[10] $end
$upscope $end
$scope begin genblk2[11] $end
$upscope $end
$scope begin genblk2[12] $end
$upscope $end
$scope begin genblk2[13] $end
$upscope $end
$scope begin genblk2[14] $end
$upscope $end
$scope begin genblk2[15] $end
$upscope $end
$scope begin genblk2[16] $end
$upscope $end
$scope begin genblk2[17] $end
$upscope $end
$scope begin genblk2[18] $end
$upscope $end
$scope begin genblk2[19] $end
$upscope $end
$scope begin genblk2[20] $end
$upscope $end
$scope begin genblk2[21] $end
$upscope $end
$scope begin genblk2[22] $end
$upscope $end
$scope begin genblk2[23] $end
$upscope $end
$scope begin genblk2[24] $end
$upscope $end
$scope begin genblk2[25] $end
$upscope $end
$scope begin genblk2[26] $end
$upscope $end
$scope begin genblk2[27] $end
$upscope $end
$scope begin genblk2[28] $end
$upscope $end
$scope begin genblk2[29] $end
$upscope $end
$scope begin genblk2[30] $end
$upscope $end
$scope begin genblk2[31] $end
$upscope $end
$scope begin genblk2[32] $end
$upscope $end
$scope begin genblk3[0] $end
$upscope $end
$scope begin genblk3[1] $end
$upscope $end
$scope begin genblk3[2] $end
$upscope $end
$scope begin genblk3[3] $end
$upscope $end
$scope begin genblk3[4] $end
$upscope $end
$scope begin genblk3[5] $end
$upscope $end
$scope begin genblk3[6] $end
$upscope $end
$scope begin genblk3[7] $end
$upscope $end
$scope begin genblk3[8] $end
$upscope $end
$scope begin genblk3[9] $end
$upscope $end
$scope begin genblk3[10] $end
$upscope $end
$scope begin genblk3[11] $end
$upscope $end
$scope begin genblk3[12] $end
$upscope $end
$scope begin genblk3[13] $end
$upscope $end
$scope begin genblk3[14] $end
$upscope $end
$scope begin genblk3[15] $end
$upscope $end
$upscope $end
$scope module osr $end
$upscope $end
$scope module pdc $end
$scope begin genblk1[0] $end
$upscope $end
$scope begin genblk1[1] $end
$upscope $end
$scope begin genblk1[2] $end
$upscope $end
$scope begin genblk1[3] $end
$upscope $end
$scope begin genblk1[4] $end
$upscope $end
$scope begin genblk1[5] $end
$upscope $end
$scope begin genblk1[6] $end
$upscope $end
$scope begin genblk1[7] $end
$upscope $end
$scope begin genblk2[0] $end
$upscope $end
$scope begin genblk2[1] $end
$upscope $end
$scope begin genblk2[2] $end
$upscope $end
$scope begin genblk2[3] $end
$upscope $end
$scope begin genblk2[4] $end
$upscope $end
$scope begin genblk2[5] $end
$upscope $end
$scope begin genblk2[6] $end
$upscope $end
$scope begin genblk2[7] $end
$upscope $end
$scope begin genblk2[8] $end
$upscope $end
$scope begin genblk2[9] $end
$upscope $end
$scope begin genblk2[10] $end
$upscope $end
$scope begin genblk2[11] $end
$upscope $end
$scope begin genblk2[12] $end
$upscope $end
$scope begin genblk2[13] $end
$upscope $end
$scope begin genblk2[14] $end
$upscope $end
$scope begin genblk2[15] $end
$upscope $end
$scope begin genblk2[16] $end
$upscope $end
$scope begin genblk2[17] $end
$upscope $end
$scope begin genblk2[18] $end
$upscope $end
$scope begin genblk2[19] $end
$upscope $end
$scope begin genblk2[20] $end
$upscope $end
$scope begin genblk2[21] $end
$upscope $end
$scope begin genblk2[22] $end
$upscope $end
$scope begin genblk2[23] $end
$upscope $end
$scope begin genblk2[24] $end
$upscope $end
$scope begin genblk2[25] $end
$upscope $end
$scope begin genblk2[26] $end
$upscope $end
$scope begin genblk2[27] $end
$upscope $end
$scope begin genblk2[28] $end
$upscope $end
$scope begin genblk2[29] $end
$upscope $end
$scope begin genblk2[30] $end
$upscope $end
$scope begin genblk2[31] $end
$upscope $end
$scope begin genblk2[32] $end
$upscope $end
$scope begin genblk3[0] $end
$upscope $end
$scope begin genblk3[1] $end
$upscope $end
$scope begin genblk3[2] $end
$upscope $end
$scope begin genblk3[3] $end
$upscope $end
$scope begin genblk3[4] $end
$upscope $end
$scope begin genblk3[5] $end
$upscope $end
$scope begin genblk3[6] $end
$upscope $end
$scope begin genblk3[7] $end
$upscope $end
$scope begin genblk3[8] $end
$upscope $end
$scope begin genblk3[9] $end
$upscope $end
$scope begin genblk3[10] $end
$upscope $end
$scope begin genblk3[11] $end
$upscope $end
$scope begin genblk3[12] $end
$upscope $end
$scope begin genblk3[13] $end
$upscope $end
$scope begin genblk3[14] $end
$upscope $end
$scope begin genblk3[15] $end
$upscope $end
$upscope $end
$upscope $end
$upscope $end
$enddefinitions $end
#0
$dumpvars
bx O"
bx N"
bx M"
bx L"
bx K"
bx J"
bx I"
bx H"
bx G"
xF"
bx E"
bx D"
bx C"
bx B"
bx A"
bx @"
x?"
bx >"
bx ="
x<"
bx ;"
bx :"
bx 9"
bx 8"
bx 7"
bx 6"
bx 5"
x4"
bx 3"
bx 2"
bx 1"
bx 0"
bx0x0x0x0x /"
bx ."
x-"
x,"
x+"
bx *"
bx )"
x("
bx '"
bx &"
bx %"
bx $"
bx #"
bx ""
bx !"
bx ~
bx }
x|
bx {
bx z
bx y
bx x
bx w
bx v
xu
bx t
bx s
xr
bx q
bx p
bx o
bx n
bx m
bx l
bx k
bx j
bx i
bx1 h
xg
xf
xe
bx d
bx c
bx b
bx a
bx `
bx _
b0xxxxxxxx ^
bx ]
bx \
x[
xZ
bx Y
bx X
xW
xV
bx U
bx T
bx S
xR
xQ
bx P
bx O
bx N
bx M
bx L
bx K
bx J
bx I
bx H
bx G
bx F
bx E
bx D
bx C
bx B
bx A
bx @
x?
x>
x=
bx <
bx ;
0:
19
bx 8
17
bx 6
bx 5
bx 4
bx 3
02
bx 1
bx 0
bx /
bx .
x-
x,
x+
x*
x)
x(
x'
x&
x%
bx $
bx #
bx "
x!
$end
#10
0("
0u
0?"
b1 S
b1 U
b1 I
b1 ."
0?
0R
b0 T
b0 8
b0 #
b0 <
b1001 "
b1001 ;
0(
#20
1(
#30
0(
1!
0'
#40
1(
#50
b11111111111111110000000000000000 G
b11111111111111110000000000000000 :"
b0 2"
b1111111111111111 .
b1111111111111111 F
b1111111111111111 J"
b1 O
b1 p
b1111111111111111 G"
0<"
b11111111111111111111111111111110 3
b11111111111111111111111111111110 N
b11111111111111111111111111111110 ""
0r
b11111111000000000000000011111111 L"
b1111111111111111 K"
b1111 D
b1111 >"
0g
b11111111111111111111111111111110 }
b11111111111111101111111111111111 $"
b1111111111111111111111111111111 #"
b11111 L
b11111 t
b11111111111111110000000000000000 N"
b1111111110111111 D"
b1111111111110111 /
b1111111111110111 E
b1111111111110111 C"
b0 a
b1000000000 b
0-"
0,"
b11111111111111111111111111111110 &"
b1111101111111111 z
b1111111111101111 4
b1111111111101111 M
b1111111111101111 y
b0 1
b0 H
b0 9"
b11111111111111111 H"
1F"
b1111111111110111 ="
b1111111111111000 0
b1111111111111000 C
b1111111111111000 @"
b1111110001111111 A"
0W
0Z
0[
b111 6
b111 P
b111 o
b11111111111111111111111111111111 ~
0|
b1111111111101111 s
b1111111111110000 5
b1111111111110000 K
b1111111111110000 v
b1111110000111111 w
b111 O"
b111111111111111110000000000000000 I"
b1111 M"
b1111111111111000 B"
b11 E"
0V
0)
0+
0-
0=
b100000000000000 _
b0 '"
b111111111111111111111111111111110 !"
b0 %"
b1111111111110000 x
b100 {
b111111111 B
b111111111 Y
b111111111 ;"
b0 c
b1 d
b1 `
b1 h
0f
1*
1,
1>
1e
b1000000001 \
b111111111 ]
b1 ^
b0 1"
0&
b0 $
1+"
b10 0"
b1 3"
b1 /"
0%
0Q
b1000000000 J
b1000000000 X
b1000000000 q
b1000000000 k
b0 j
b1 i
b0 m
b1 n
b0 A
b0 l
b0 )"
04"
b0 @
b0 *"
b0 6"
b1 8"
b0 5"
b0 7"
0(
0!
#60
1(
#70
0(
1!
#80
b1000000000 \
b1000000000 ]
b0 ^
b1000000000 b
1)
1+
1-
1=
b10000000000000 _
b11 h
0*
0,
0>
0e
b1 m
b100000000000000 n
1(
#90
0(
#100
b100110111 b
b1000000000000 _
b1011001001 \
b100110111 ]
b11001001 ^
b10000000000000 n
1(
#110
b1011001001 b
b1 c
1g
0(
1'
#120
b1111111 G
b1111111 :"
b11111111110000000000000000000000 O
b11111111110000000000000000000000 p
b111111 L
b111111 t
b11111111111100000001111111111111 L"
b1111111111111111111111111 K"
b11111111111111111111111110000000 .
b11111111111111111111111110000000 F
b11111111111111111111111110000000 J"
b111 D
b111 >"
b11111111111000000000011111111111 $"
b1111111111111111111111 #"
b1111111111111111111111 3
b1111111111111111111111 N
b1111111111111111111111 ""
b11111111111111111111111110000000 N"
b11111111111111111111111110000000 G"
b1111110111111111 D"
b1111111111111011 /
b1111111111111011 E
b1111111111111011 C"
b1101000010 b
b11111111111111111111110000000000 &"
b1111111111111111111111 }
b1111111111011111 z
b1111111111011111 4
b1111111111011111 M
b1111111111011111 y
b1 1
b1 H
b1 9"
b11111111111111111111111111 H"
0F"
b1111111111111011 ="
b1111111111111100 0
b1111111111111100 C
b1111111111111100 @"
b1111111001111111 A"
b110 6
b110 P
b110 o
b11111111111111111111111 ~
1|
b1111111111011111 s
b1111111111100000 5
b1111111111100000 K
b1111111111100000 v
b1111100000111111 w
b110 O"
b111111111111111111111111110000000 I"
b110 M"
b1111111111111100 B"
b10 E"
b100000000000 _
b1 '"
b111111111111111111111110000000000 !"
b1001 %"
b1111111111100000 x
b101 {
b100110110 B
b100110110 Y
b100110110 ;"
b1111001 ^
b1101000010 \
b1001010000 ]
b1011001001 J
b1011001001 X
b1011001001 q
b1011001001 k
b1 j
b1000000000000 n
1(
#130
b1001010000 b
b0 c
0g
0(
0'
#140
b11111100000000000000000000000000 G
b11111100000000000000000000000000 :"
b1111 D
b1111 >"
b11111111111 O
b11111111111 p
b11111111111110000001111111111111 L"
b11111111111111111111111111 K"
b11111111111111111111111111 .
b11111111111111111111111111 F
b11111111111111111111111111 J"
b11111111110000000000011111111111 $"
b111111111111111111111 #"
b11111111111111111111100000000000 3
b11111111111111111111100000000000 N
b11111111111111111111100000000000 ""
b11111 L
b11111 t
b11111111111111111111111111000000 N"
b11111111111111111111111111 G"
b1111111110111111 D"
b1111111111110111 /
b1111111111110111 E
b1111111111110111 C"
b1000000110 b
b11111111111111111111100000000000 &"
b11111111111111111111100000000000 }
b1111101111111111 z
b1111111111101111 4
b1111111111101111 M
b1111111111101111 y
b0 1
b0 H
b0 9"
b111111111111111111111111111 H"
1F"
b1111111111110111 ="
b1111111111111000 0
b1111111111111000 C
b1111111111111000 @"
b1111110001111111 A"
b111 6
b111 P
b111 o
b1111111111111111111111 ~
0|
b1111111111101111 s
b1111111111110000 5
b1111111111110000 K
b1111111111110000 v
b1111110000111111 w
b111 O"
b111111111111111111111111111000000 I"
b101 M"
b1111111111111000 B"
b11 E"
b10000000000 _
b1001010 ^
b0 '"
b111111111111111111111100000000000 !"
b1010 %"
b1111111111110000 x
b100 {
b110101111 B
b110101111 Y
b110101111 ;"
b1010011010 \
b1000000110 ]
b1001010000 J
b1001010000 X
b1001010000 q
b1001010000 k
b0 j
b100000000000 n
1(
#150
0(
#160
b11111111111111110000000000000000 G
b11111111111111110000000000000000 :"
b1111111111111111 .
b1111111111111111 F
b1111111111111111 J"
b1 O
b1 p
b1111111111111111 G"
b11111111111111111111111111111110 3
b11111111111111111111111111111110 N
b11111111111111111111111111111110 ""
b11111111000000000000000011111111 L"
b1111111111111111 K"
b11111111111111111111111111111110 }
b11111111111111101111111111111111 $"
b1111111111111111111111111111111 #"
b11111111111111110000000000000000 N"
b111011001 b
b11111111111111111111111111111110 &"
b110 1
b110 H
b110 9"
b11111111111111111 H"
b101101 ^
b1 6
b1 P
b1 o
b11111111111111111111111111111111 ~
b1 O"
b111111111111111110000000000000000 I"
b1111 M"
b1000000000 _
b110 '"
b111111111111111111111111111111110 !"
b0 %"
b111111001 B
b111111001 Y
b111111001 ;"
b1000110011 \
b111011001 ]
b1000000110 J
b1000000110 X
b1000000110 q
b1000000110 k
b10000000000 n
1(
#170
0(
#180
b11111 G
b11111 :"
b11111 D
b11111 >"
b11111111111100000000000000000000 O
b11111111111100000000000000000000 p
b11111111111110000011111111111111 L"
b111111111111111111111111111 K"
b11111111111111111111111111100000 .
b11111111111111111111111111100000 F
b11111111111111111111111111100000 J"
b11111111110000000000001111111111 $"
b11111111111111111111 #"
b11111111111111111111 3
b11111111111111111111 N
b11111111111111111111 ""
b1111 L
b1111 t
b11111111111111111111111111100000 N"
b11111111111111111111111111100000 G"
b1111101111111111 D"
b1111111111101111 /
b1111111111101111 E
b1111111111101111 C"
b11011 ^
b110111110 b
b11111111111111111111000000000000 &"
b11111111111111111111 }
b1111111110111111 z
b1111111111110111 4
b1111111111110111 M
b1111111111110111 y
b1 1
b1 H
b1 9"
b1111111111111111111111111111 H"
0F"
b1111111111101111 ="
b1111111111110000 0
b1111111111110000 C
b1111111111110000 @"
b1111110000111111 A"
b110 6
b110 P
b110 o
b111111111111111111111 ~
1|
b1111111111110111 s
b1111111111111000 5
b1111111111111000 K
b1111111111111000 v
b1111110001111111 w
b110 O"
b111111111111111111111111111100000 I"
b100 M"
b1111111111110000 B"
b100 E"
b100000000 _
b1 '"
b111111111111111111111000000000000 !"
b1011 %"
b1111111111111000 x
b11 {
b1000100110 B
b1000100110 Y
b1000100110 ;"
b111110100 \
b110111110 ]
b111011001 J
b111011001 X
b111011001 q
b111011001 k
b1000000000 n
1(
#190
0(
#200
b11111111000000000000000000000000 O
b11111111000000000000000000000000 p
b111111111 G
b111111111 :"
b111111111111111111111111 3
b111111111111111111111111 N
b111111111111111111111111 ""
b11111111111111111111111000000000 .
b11111111111111111111111000000000 F
b11111111111111111111111000000000 J"
b111111111111111111111111 }
b11111111111111111111111000000000 G"
b11111111111000000000111111111111 L"
b11111111111111111111111 K"
b10001 ^
b11111111111100000000111111111111 $"
b111111111111111111111111 #"
b11111111111111111111111000000000 N"
b110101101 b
b11111111111111111111111100000000 &"
b110 1
b110 H
b110 9"
b111111111111111111111111 H"
b1 6
b1 P
b1 o
b1111111111111111111111111 ~
b1 O"
b111111111111111111111111000000000 I"
b1000 M"
b10000000 _
b110 '"
b111111111111111111111111100000000 !"
b111 %"
b1001000001 B
b1001000001 Y
b1001000001 ;"
b111001111 \
b110101101 ]
b110111110 J
b110111110 X
b110111110 q
b110111110 k
b100000000 n
1(
#210
0(
